sumsarized
…
List of files without associated HHID and metadata from the tracking sheet.

files_without_hhid <- unique(dplyr::filter(sumsarized_filtered,is.na(HHID)) %>% dplyr::select(fullsumsarizer_filename))   #Data is removed in the next step if there is no HHID
files_without_hhid

## # A tibble: 0 x 1
## # ... with 1 variables: fullsumsarizer_filename <chr>

files_without_metadata <- unique(dplyr::filter(sumsarized_filtered,is.na(stove_type)) %>% dplyr::select(fullsumsarizer_filename))   #Note the name of files for which there is there is no matching filename in the tracking sheet, ergo no metadata from the tracking sheet. Not currently being filtered out, but this should be attended to by fixing any data files/tracking entries that appear in this variable.  Make sure that the actual file name matches what is listed in the tracking sheet.  Files names should also be unique.
files_without_metadata

## # A tibble: 354 x 1
##    fullsumsarizer_filename
##                      <chr>
##  1        AKO_02CC_DL1.csv
##  2        AKO_02KE_DL1.csv
##  3        AKO_03CC_DL1.csv
##  4        AKO_03Ke_DL1.csv
##  5        AKO_05CC_DL1.csv
##  6        AKO_05Ke_DL1.csv
##  7        AKO_06CC_DL1.csv
##  8        AKO_07CC_DL1.csv
##  9        AKO_07KE_DL1.csv
## 10        AKO_08CC_DL1.csv
## # ... with 344 more rows
…
